\relax 
\providecommand\hyper@newdestlabel[2]{}
\providecommand\HyperFirstAtBeginDocument{\AtBeginDocument}
\HyperFirstAtBeginDocument{\ifx\hyper@anchor\@undefined
\global\let\oldcontentsline\contentsline
\gdef\contentsline#1#2#3#4{\oldcontentsline{#1}{#2}{#3}}
\global\let\oldnewlabel\newlabel
\gdef\newlabel#1#2{\newlabelxx{#1}#2}
\gdef\newlabelxx#1#2#3#4#5#6{\oldnewlabel{#1}{{#2}{#3}}}
\AtEndDocument{\ifx\hyper@anchor\@undefined
\let\contentsline\oldcontentsline
\let\newlabel\oldnewlabel
\fi}
\fi}
\global\let\hyper@last\relax 
\gdef\HyperFirstAtBeginDocument#1{#1}
\providecommand\HyField@AuxAddToFields[1]{}
\providecommand\HyField@AuxAddToCoFields[2]{}
\citation{ShiftProject}
\citation{ShiftProject}
\citation{Cisco2019}
\citation{Cisco2019}
\citation{Sandvine2018}
\citation{Sandvine2018}
\citation{li_end--end_2018}
\citation{offloading}
\@writefile{toc}{\contentsline {section}{\numberline {I}Introduction}{1}{section.1}\protected@file@percent }
\citation{Wang2016}
\citation{Ejaz2017}
\citation{Minoli2017}
\citation{Tao2016}
\citation{jalali_fog_2016}
\citation{li_end--end_2018}
\citation{Sarkar2018}
\citation{Wang2016}
\citation{Samie2016}
\citation{Gray2015}
\citation{Nest}
\citation{Samie2016}
\citation{ns3-energywifi}
\citation{Andres2017}
\citation{Gray2015}
\citation{offloading}
\citation{Wang2016}
\citation{Martinez2015}
\citation{ns3-energywifi}
\citation{offloading}
\citation{li_end--end_2018}
\citation{li_end--end_2018}
\citation{Ehsan}
\citation{jalali_fog_2016}
\citation{Sarkar2018}
\citation{li_end--end_2018}
\citation{jalali_fog_2016}
\citation{mahadevan_power_2009}
\citation{li_end--end_2018}
\citation{Ehsan}
\citation{li_end--end_2018}
\@writefile{toc}{\contentsline {section}{\numberline {II}Related Work}{2}{section.2}\protected@file@percent }
\newlabel{sec:orge831050}{{II}{2}{Related Work}{section.2}{}}
\newlabel{sec:sota}{{II}{2}{Related Work}{section.2}{}}
\@writefile{toc}{\contentsline {subsection}{\numberline {\unhbox \voidb@x \hbox {II-A}}Energy consumption of IoT devices}{2}{subsection.2.1}\protected@file@percent }
\newlabel{sec:org77c2591}{{\unhbox \voidb@x \hbox {II-A}}{2}{Energy consumption of IoT devices}{subsection.2.1}{}}
\@writefile{toc}{\contentsline {subsection}{\numberline {\unhbox \voidb@x \hbox {II-B}}Energy consumption of network and cloud infrastructures}{2}{subsection.2.2}\protected@file@percent }
\newlabel{sec:orga15491a}{{\unhbox \voidb@x \hbox {II-B}}{2}{Energy consumption of network and cloud infrastructures}{subsection.2.2}{}}
\@writefile{toc}{\contentsline {section}{\numberline {III}Characterization of low-bandwidth IoT applications}{2}{section.3}\protected@file@percent }
\newlabel{sec:org1da7386}{{III}{2}{Characterization of low-bandwidth IoT applications}{section.3}{}}
\newlabel{sec:usec}{{III}{2}{Characterization of low-bandwidth IoT applications}{section.3}{}}
\citation{Nest}
\citation{Cisco2019}
\citation{halperin_demystifying_nodate}
\citation{li_end--end_2018}
\citation{li_end--end_2018}
\citation{jalali_fog_2016}
\citation{orgerie_simulation_2017}
\citation{sivaraman_profiling_2011}
\citation{Serrano2015}
\citation{cornea_studying_2014-1}
\@writefile{lof}{\contentsline {figure}{\numberline {1}{\ignorespaces Overview of IoT devices.}}{3}{figure.1}\protected@file@percent }
\newlabel{fig:IoTdev}{{1}{3}{Overview of IoT devices}{figure.1}{}}
\@writefile{lof}{\contentsline {figure}{\numberline {2}{\ignorespaces Overview of the IoT architecture.}}{3}{figure.2}\protected@file@percent }
\newlabel{fig:parts}{{2}{3}{Overview of the IoT architecture}{figure.2}{}}
\@writefile{toc}{\contentsline {section}{\numberline {IV}Experimental setup}{3}{section.4}\protected@file@percent }
\newlabel{sec:orgb5f6554}{{IV}{3}{Experimental setup}{section.4}{}}
\newlabel{sec:model}{{IV}{3}{Experimental setup}{section.4}{}}
\@writefile{toc}{\contentsline {subsection}{\numberline {\unhbox \voidb@x \hbox {IV-A}}IoT Part}{3}{subsection.4.1}\protected@file@percent }
\newlabel{sec:orgeb67dd0}{{\unhbox \voidb@x \hbox {IV-A}}{3}{IoT Part}{subsection.4.1}{}}
\@writefile{lot}{\contentsline {table}{\numberline {I}{\ignorespaces Simulations Energy Parameters}}{3}{table.1}\protected@file@percent }
\newlabel{tab:wifi-energy}{{I}{3}{Simulations Energy Parameters}{table.1}{}}
\newlabel{tab:net-energy}{{I(b)}{3}{Subtable I(b)}{subtable.1.2}{}}
\newlabel{sub@tab:net-energy}{{(b)}{3}{Subtable I(b)\relax }{subtable.1.2}{}}
\newlabel{tab:params}{{I}{3}{Simulations Energy Parameters}{subtable.1.2}{}}
\@writefile{lot}{\contentsline {subtable}{\numberline{(a)}{\ignorespaces {IoT part}}}{3}{subtable.1.2}\protected@file@percent }
\@writefile{lot}{\contentsline {subtable}{\numberline{(b)}{\ignorespaces {Network part}}}{3}{subtable.1.2}\protected@file@percent }
\@writefile{toc}{\contentsline {subsection}{\numberline {\unhbox \voidb@x \hbox {IV-B}}Network Part}{3}{subsection.4.2}\protected@file@percent }
\newlabel{sec:orgaeb55ca}{{\unhbox \voidb@x \hbox {IV-B}}{3}{Network Part}{subsection.4.2}{}}
\citation{li_end--end_2018}
\citation{shehabi_united_2016-1}
\@writefile{toc}{\contentsline {subsection}{\numberline {\unhbox \voidb@x \hbox {IV-C}}Cloud Part}{4}{subsection.4.3}\protected@file@percent }
\newlabel{sec:orgfc9ea54}{{\unhbox \voidb@x \hbox {IV-C}}{4}{Cloud Part}{subsection.4.3}{}}
\@writefile{lof}{\contentsline {figure}{\numberline {3}{\ignorespaces Grid'5000 experimental setup.}}{4}{figure.3}\protected@file@percent }
\newlabel{fig:g5kExp}{{3}{4}{Grid'5000 experimental setup}{figure.3}{}}
\@writefile{toc}{\contentsline {section}{\numberline {V}Evaluation}{4}{section.5}\protected@file@percent }
\newlabel{sec:org8201f68}{{V}{4}{Evaluation}{section.5}{}}
\newlabel{sec:eval}{{V}{4}{Evaluation}{section.5}{}}
\@writefile{toc}{\contentsline {subsection}{\numberline {\unhbox \voidb@x \hbox {V-A}}IoT and Network Power Consumption}{4}{subsection.5.1}\protected@file@percent }
\newlabel{sec:org1d05c1b}{{\unhbox \voidb@x \hbox {V-A}}{4}{IoT and Network Power Consumption}{subsection.5.1}{}}
\@writefile{lot}{\contentsline {table}{\numberline {II}{\ignorespaces Sensors transmission interval effects with 15 sensors}}{4}{table.2}\protected@file@percent }
\newlabel{tab:sensorsSendIntervalEffects}{{II}{4}{Sensors transmission interval effects with 15 sensors}{table.2}{}}
\@writefile{toc}{\contentsline {subsection}{\numberline {\unhbox \voidb@x \hbox {V-B}}Cloud Energy Consumption}{4}{subsection.5.2}\protected@file@percent }
\newlabel{sec:org9daa066}{{\unhbox \voidb@x \hbox {V-B}}{4}{Cloud Energy Consumption}{subsection.5.2}{}}
\citation{Ehsan}
\citation{heinrich_predicting_2017}
\citation{shehabi_united_2016-1}
\@writefile{lof}{\contentsline {figure}{\numberline {4}{\ignorespaces Analysis of the variation of the number of sensors on the IoT/Network part energy consumption for a transmission interval of 10s.}}{5}{figure.4}\protected@file@percent }
\newlabel{fig:sensorsNumber}{{4}{5}{Analysis of the variation of the number of sensors on the IoT/Network part energy consumption for a transmission interval of 10s}{figure.4}{}}
\@writefile{toc}{\contentsline {section}{\numberline {VI}End-to-End Consumption Model}{5}{section.6}\protected@file@percent }
\newlabel{sec:orgfd3b6ae}{{VI}{5}{End-to-End Consumption Model}{section.6}{}}
\newlabel{sec:discuss}{{VI}{5}{End-to-End Consumption Model}{section.6}{}}
\citation{Hassidim2013}
\citation{Zhang2016}
\citation{mahadevan_power_2009}
\citation{Hassidim2013}
\citation{orgerie_simulation_2017}
\@writefile{lof}{\contentsline {figure}{\numberline {5}{\ignorespaces Server power consumption multiplied by the PUE (= 1.2) using 20 sensors sending data every 10s for various VM memory sizes}}{6}{figure.5}\protected@file@percent }
\newlabel{fig:vmSize}{{5}{6}{Server power consumption multiplied by the PUE (= 1.2) using 20 sensors sending data every 10s for various VM memory sizes}{figure.5}{}}
\@writefile{lof}{\contentsline {figure}{\numberline {6}{\ignorespaces Average server power consumption multiplied by the PUE (= 1.2) for sensors sending data every 10s}}{6}{figure.6}\protected@file@percent }
\newlabel{fig:sensorsNumber-server}{{6}{6}{Average server power consumption multiplied by the PUE (= 1.2) for sensors sending data every 10s}{figure.6}{}}
\@writefile{lof}{\contentsline {figure}{\numberline {7}{\ignorespaces Average sensors power cost on the server hosting only our VM with PUE (= 1.2) for sensors sending data every 10s}}{6}{figure.7}\protected@file@percent }
\newlabel{fig:sensorsNumber-WPS}{{7}{6}{Average sensors power cost on the server hosting only our VM with PUE (= 1.2) for sensors sending data every 10s}{figure.7}{}}
\@writefile{lof}{\contentsline {figure}{\numberline {8}{\ignorespaces Server energy consumption multiplied by the PUE (= 1.2) for 50 sensors sending requests at different transmission interval.}}{7}{figure.8}\protected@file@percent }
\newlabel{fig:sensorsFrequency}{{8}{7}{Server energy consumption multiplied by the PUE (= 1.2) for 50 sensors sending requests at different transmission interval}{figure.8}{}}
\@writefile{lot}{\contentsline {table}{\numberline {III}{\ignorespaces Network Devices Parameters}}{7}{table.3}\protected@file@percent }
\newlabel{tab:netbidules}{{III}{7}{Network Devices Parameters}{table.3}{}}
\newlabel{fig:end-to-end}{{VI}{7}{End-to-End Consumption Model}{table.3}{}}
\@writefile{lof}{\contentsline {figure}{\numberline {9}{\ignorespaces End-to-end network energy consumption using sensors interval of 10s}}{7}{figure.9}\protected@file@percent }
\bibstyle{IEEEtran}
\bibdata{references}
\bibcite{ShiftProject}{1}
\bibcite{Cisco2019}{2}
\bibcite{Sandvine2018}{3}
\bibcite{li_end--end_2018}{4}
\bibcite{offloading}{5}
\bibcite{Wang2016}{6}
\bibcite{Ejaz2017}{7}
\bibcite{Minoli2017}{8}
\bibcite{Tao2016}{9}
\bibcite{jalali_fog_2016}{10}
\bibcite{Sarkar2018}{11}
\bibcite{Samie2016}{12}
\bibcite{Gray2015}{13}
\bibcite{Nest}{14}
\bibcite{ns3-energywifi}{15}
\bibcite{Andres2017}{16}
\bibcite{Martinez2015}{17}
\bibcite{Ehsan}{18}
\bibcite{mahadevan_power_2009}{19}
\bibcite{halperin_demystifying_nodate}{20}
\bibcite{orgerie_simulation_2017}{21}
\bibcite{sivaraman_profiling_2011}{22}
\bibcite{Serrano2015}{23}
\bibcite{cornea_studying_2014-1}{24}
\bibcite{shehabi_united_2016-1}{25}
\bibcite{heinrich_predicting_2017}{26}
\bibcite{Hassidim2013}{27}
\bibcite{Zhang2016}{28}
\@writefile{toc}{\contentsline {section}{\numberline {VII}Conclusion}{8}{section.7}\protected@file@percent }
\newlabel{sec:org76c5125}{{VII}{8}{Conclusion}{section.7}{}}
\newlabel{sec:cl}{{VII}{8}{Conclusion}{section.7}{}}
\@writefile{toc}{\contentsline {section}{References}{8}{section*.2}\protected@file@percent }
