% Generated by IEEEtran.bst, version: 1.14 (2015/08/26)
\begin{thebibliography}{10}
\providecommand{\url}[1]{#1}
\csname url@samestyle\endcsname
\providecommand{\newblock}{\relax}
\providecommand{\bibinfo}[2]{#2}
\providecommand{\BIBentrySTDinterwordspacing}{\spaceskip=0pt\relax}
\providecommand{\BIBentryALTinterwordstretchfactor}{4}
\providecommand{\BIBentryALTinterwordspacing}{\spaceskip=\fontdimen2\font plus
\BIBentryALTinterwordstretchfactor\fontdimen3\font minus
  \fontdimen4\font\relax}
\providecommand{\BIBforeignlanguage}[2]{{%
\expandafter\ifx\csname l@#1\endcsname\relax
\typeout{** WARNING: IEEEtran.bst: No hyphenation pattern has been}%
\typeout{** loaded for the language `#1'. Using the pattern for}%
\typeout{** the default language instead.}%
\else
\language=\csname l@#1\endcsname
\fi
#2}}
\providecommand{\BIBdecl}{\relax}
\BIBdecl

\bibitem{ShiftProject}
{The Shift Project}, ``{Lean ICT, Pour une sobri\'et\'e num\'erique},''
  https://theshiftproject.org/article/pour-une-sobriete-numerique-rapport-shift/,
  Oct. 2018.

\bibitem{Cisco2019}
Cisco, ``{Cisco Visual Networking Index: Forecast and Trends, 2017–2022},''
  White paper, Feb. 2019.

\bibitem{Sandvine2018}
Sandvine, ``{The Global Internet Phenomena Report},''
  \url{https://www.sandvine.com/phenomena}, Oct. 2018.

\bibitem{li_end--end_2018}
Y.~Li, A.-C. Orgerie, I.~Rodero, B.~L. Amersho, M.~Parashar, and J.-M. Menaud,
  ``\BIBforeignlanguage{en}{End-to-end energy models for {Edge} {Cloud}-based
  {IoT} platforms: {Application} to data stream analysis in {IoT}},''
  \emph{\BIBforeignlanguage{en}{Future Generation Computer Systems}}, vol.~87,
  pp. 667--678, Oct. 2018.

\bibitem{offloading}
K.~{Kumar} and Y.~{Lu}, ``{Cloud Computing for Mobile Users: Can Offloading
  Computation Save Energy?}'' \emph{Computer}, vol.~43, no.~4, pp. 51--56,
  2010.

\bibitem{Wang2016}
K.~{Wang}, Y.~{Wang}, Y.~{Sun}, S.~{Guo}, and J.~{Wu}, ``{Green Industrial
  Internet of Things Architecture: An Energy-Efficient Perspective},''
  \emph{IEEE Communications Magazine}, vol.~54, no.~12, pp. 48--54, 2016.

\bibitem{Ejaz2017}
W.~Ejaz, M.~Naeem, A.~Shahid, A.~Anpalagan, and M.~Jo, ``Efficient energy
  management for the internet of things in smart cities,'' \emph{IEEE
  Communications Magazine}, vol.~55, no.~1, pp. 84--91, 2017.

\bibitem{Minoli2017}
D.~{Minoli}, K.~{Sohraby}, and B.~{Occhiogrosso}, ``{IoT Considerations,
  Requirements, and Architectures for Smart Buildings—Energy Optimization and
  Next-Generation Building Management Systems},'' \emph{IEEE Internet of Things
  Journal}, vol.~4, no.~1, pp. 269--283, 2017.

\bibitem{Tao2016}
F.~Tao, Y.~Wang, Y.~Zuo, H.~Yang, and M.~Zhang, ``{Internet of Things in
  product life-cycle energy management},'' \emph{Journal of Industrial
  Information Integration}, vol.~1, pp. 26 -- 39, 2016.

\bibitem{jalali_fog_2016}
F.~Jalali, K.~Hinton, R.~Ayre, T.~Alpcan, and R.~S. Tucker,
  ``\BIBforeignlanguage{en}{Fog {Computing} {May} {Help} to {Save} {Energy} in
  {Cloud} {Computing}},'' \emph{\BIBforeignlanguage{en}{IEEE J. on Selected
  Areas in Communications}}, vol.~34, no.~5, pp. 1728--1739, 2016.

\bibitem{Sarkar2018}
S.~{Sarkar}, S.~{Chatterjee}, and S.~{Misra}, ``{Assessment of the Suitability
  of Fog Computing in the Context of Internet of Things},'' \emph{IEEE
  Transactions on Cloud Computing}, vol.~6, no.~1, pp. 46--59, 2018.

\bibitem{Samie2016}
F.~Samie, L.~Bauer, and J.~Henkel, ``Iot technologies for embedded computing: A
  survey,'' in \emph{IEEE/ACM/IFIP CODES}, 2016.

\bibitem{Gray2015}
C.~{Gray}, R.~{Ayre}, K.~{Hinton}, and R.~S. {Tucker}, ``{Power consumption of
  IoT access network technologies},'' in \emph{IEEE International Conference on
  Communication Workshop (ICCW)}, 2015, pp. 2818--2823.

\bibitem{Nest}
Google, ``{Nest Learning Thermostat -- Spec Sheet},''
  \url{https://nest.com/-downloads/press/documents/nest-thermostat-fact-sheet_2017.pdf},
  2017.

\bibitem{ns3-energywifi}
H.~Wu, S.~Nabar, and R.~Poovendran, ``{An Energy Framework for the Network
  Simulator 3 (NS-3)},'' in \emph{International ICST Conference on Simulation
  Tools and Techniques (SIMUTools)}, 2011, pp. 222--230.

\bibitem{Andres2017}
P.~{Andres-Maldonado}, P.~{Ameigeiras}, J.~{Prados-Garzon}, J.~J.
  {Ramos-Munoz}, and J.~M. {Lopez-Soler}, ``{Optimized LTE data transmission
  procedures for IoT: Device side energy consumption analysis},'' in \emph{IEEE
  International Conference on Communications Workshops (ICC Workshops)}, 2017,
  pp. 540--545.

\bibitem{Martinez2015}
B.~{Martinez}, M.~{Montón}, I.~{Vilajosana}, and J.~D. {Prades}, ``{The Power
  of Models: Modeling Power Consumption for IoT Devices},'' \emph{IEEE Sensors
  Journal}, vol.~15, no.~10, pp. 5777--5789, 2015.

\bibitem{Ehsan}
E.~{Ahvar}, A.-C. {Orgerie}, and A.~{Lebre}, ``Estimating energy consumption of
  cloud, fog and edge computing infrastructures,'' \emph{IEEE Trans. on Sust.
  Comp.}, 2019.

\bibitem{mahadevan_power_2009}
P.~Mahadevan, P.~Sharma, S.~Banerjee, and P.~Ranganathan, ``A {Power}
  {Benchmarking} {Framework} for {Network} {Devices},'' in \emph{{NETWORKING}},
  ser. Lecture {Notes} in {Computer} {Science}, 2009, pp. 795--808.

\bibitem{halperin_demystifying_nodate}
D.~Halperin, B.~Greenstein, A.~Sheth, and D.~Wetherall,
  ``\BIBforeignlanguage{en}{Demystifying 802.11n {Power} {Consumption}},'' in
  \emph{\BIBforeignlanguage{en}{International Conference on Power Aware
  Computing and Systems (HotPower)}}, 2010, p.~5.

\bibitem{orgerie_simulation_2017}
A.-C. Orgerie, B.~L. Amersho, T.~Haudebourg, M.~Quinson, M.~Rifai, D.~L.
  Pacheco, and L.~Lefèvre, ``Simulation {Toolbox} for {Studying} {Energy}
  {Consumption} in {Wired} {Networks},'' in \emph{{CNSM}: {International}
  {Conference} on {Network} and {Service} {Management}}, 2017, pp. 1--5.

\bibitem{sivaraman_profiling_2011}
V.~Sivaraman, A.~Vishwanath, Z.~Zhao, and C.~Russell, ``Profiling per-packet
  and per-byte energy consumption in the {NetFPGA} {Gigabit} router,'' in
  \emph{IEEE INFOCOM Workshops}, 2011, pp. 331--336.

\bibitem{Serrano2015}
P.~{Serrano}, A.~{Garcia-Saavedra}, G.~{Bianchi}, A.~{Banchs}, and
  A.~{Azcorra}, ``{Per-Frame Energy Consumption in 802.11 Devices and Its
  Implication on Modeling and Design},'' \emph{IEEE/ACM Trans. on Net.},
  vol.~23, no.~4, pp. 1243--1256, 2015.

\bibitem{cornea_studying_2014-1}
B.~F. Cornea, A.~C. Orgerie, and L.~Lefèvre, ``Studying the energy consumption
  of data transfers in {Clouds}: the {Ecofen} approach,'' in \emph{2014 {IEEE}
  3rd {International} {Conference} on {Cloud} {Networking} ({CloudNet})}, Oct.
  2014, pp. 143--148.

\bibitem{shehabi_united_2016-1}
A.~Shehabi, S.~Smith, D.~Sartor, R.~Brown, M.~Herrlin, J.~Koomey, E.~Masanet,
  N.~Horner, I.~Azevedo, and W.~Lintner, ``\BIBforeignlanguage{en}{United
  {States} {Data} {Center} {Energy} {Usage} {Report}},'' LBNL, Tech. Rep.
  LBNL--1005775, 1372902, Jun. 2016.

\bibitem{heinrich_predicting_2017}
F.~C. Heinrich, T.~Cornebize, A.~Degomme, A.~Legrand, A.~Carpen-Amarie,
  S.~Hunold, A.-C. Orgerie, and M.~Quinson, ``Predicting the
  {Energy}-{Consumption} of {MPI} {Applications} at {Scale} {Using} {Only} a
  {Single} {Node},'' in \emph{IEEE Cluster Conference}, 2017, pp. 92--102.

\bibitem{Hassidim2013}
A.~{Hassidim}, D.~{Raz}, M.~{Segalov}, and A.~{Shaqed}, ``{Network utilization:
  The flow view},'' in \emph{IEEE INFOCOM}, 2013, pp. 1429--1437.

\bibitem{Zhang2016}
Z.~{Zhang}, Y.~{Bejerano}, and S.~{Antonakopoulos}, ``{Energy-Efficient IP Core
  Network Configuration Under General Traffic Demands},'' \emph{IEEE/ACM Trans.
  on Networking}, vol.~24, no.~2, pp. 745--758, 2016.

\end{thebibliography}
